…
Create an image with most important features used by your model:
```{r echo=TRUE, results=TRUE}
digits.final.rs %>%
  extract_fit_engine() %>%
  vip::vip()

imp.tbl <- digits.final.rs %>%
  extract_fit_engine() %>%
  vip::vi()
imp.tbl
```
# A tibble: 33 × 2
   Variable Importance
   <chr>         <dbl>
 1 V355           55.1
 2 V414           54.8
 3 V442           47.6
 4 V386           47.0
 5 V327           46.7
 6 V354           44.8
 7 V415           42.6
 8 V326           42.5
 9 V383           42.2
10 V387           40.9
# … with 23 more rows
…
